Instance;Objective;BAP cost;CSP cost
10l_1_30;47.870248331005286;0;95.74049666201057
10l_1_30;66.87024833100529;41;92.74049666201057
10l_1_30;70.37024833100529;49;91.74049666201057
10l_1_30;75.87024833100529;61;90.74049666201057
10l_1_30;84.87024833100529;80;89.74049666201057
10l_1_30;128.12464296257798;170;86.24928592515593
10l_1_50;18.690610446395787;1;36.381220892791575
10l_1_50;18.690610446395787;4;33.381220892791575
10l_1_50;39.74788551785644;47;32.49577103571288
10l_1_50;40.19061044639579;48;32.381220892791575
10l_1_50;42.74788551785644;54;31.495771035712874
10l_1_70;85.97385386840232;24;147.94770773680463
10l_1_70;83.32824840460755;25;141.6564968092151
10l_1_70;57.240435201671914;26;88.48087040334383
10l_1_70;64.24043520167191;48;80.48087040334383
10l_1_70;80.71223726810663;91;70.42447453621325
10l_1_70;87.71223726810663;113;62.42447453621325
10l_1_70;96.06663180431187;136;56.133263608623736
10l_1_70;124.31663180431187;201;47.633263608623736
10l_3_30;62.2580177858904;16;108.5160355717808
10l_3_30;44.1624125128305;29;59.324825025661
10l_3_30;43.1624125128305;36;50.324825025661
10l_3_30;42.6624125128305;37;48.324825025661
10l_3_30;92.74644488596152;142;43.49288977192305
10l_3_50;159.804962530432;25;294.609925060864
10l_3_50;150.95074342968547;37;264.90148685937095
10l_3_50;139.90496243506456;38;241.80992487012912
10l_3_50;112.50289043719602;45;180.00578087439203
10l_3_50;94.04838776495845;51;137.0967755299169
10l_3_50;79.75801826272755;71;88.5160365254551
10l_3_50;118.25801826272755;182;54.51603652545511
10l_3_70;226.0399965492603;351;101.07999309852059
10l_3_70;282.5399965492603;465;100.07999309852059
10l_3_70;149.21074450042707;114;184.42148900085414
10l_3_70;148.21074450042707;125;171.42148900085414
10l_3_70;145.71074450042707;127;164.42148900085414
10l_3_70;139.71074450042707;128;151.42148900085414
10l_3_70;132.9638001850389;132;133.92760037007784
10l_3_70;130.4638001850389;143;117.92760037007784
10l_3_70;137.28560191768761;167;107.57120383537524
10l_3_70;168.78560191768761;233;104.57120383537524
10l_3_70;188.0399965492603;273;103.07999309852059
10l_5_30;215.04205044512372;348;82.08410089024743
10l_5_30;100.55594583570556;22;179.11189167141112
10l_5_30;94.91034061032937;26;163.82068122065874
10l_5_30;89.55594583570556;28;151.11189167141112
10l_5_30;81.05594583570556;32;130.11189167141112
10l_5_30;75.1559459787567;36;114.31189195751341
10l_5_30;75.1559459787567;46;104.31189195751341
10l_5_30;94.6559459787567;96;93.31189195751341
10l_5_30;116.1559459787567;143;89.31189195751341
10l_5_30;162.45801807199268;240;84.91603614398538
10l_5_50;94.0383630130685;27;161.076726026137
10l_5_50;77.16455980644332;30;124.32911961288663
10l_5_50;82.16455980644332;57;107.32911961288663
10l_5_50;72.4666318996793;59;85.9332637993586
10l_5_50;77.4666318996793;86;68.9332637993586
10l_5_50;123.55066427281032;186;61.10132854562065
10l_5_50;190.1506641774429;322;58.30132835488579
10l_5_70;262.81380056650863;453;72.6276011330173
10l_5_70;110.33982178137359;81;139.67964356274717
10l_5_70;116.83982178137359;97;136.67964356274717
10l_5_70;111.83982178137359;100;123.67964356274717
10l_5_70;114.83982178137359;109;120.67964356274717
10l_5_70;111.81380056650866;122;101.62760113301731
10l_5_70;117.31380056650866;141;93.62760113301731
10l_5_70;141.31380056650866;196;86.62760113301731
10l_5_70;172.31380056650866;264;80.62760113301731
10l_5_70;225.81380056650863;376;75.6276011330173
10m_1_30;19.313850308712503;0;38.627700617425006
10m_1_30;26.313850308712503;15;37.627700617425006
10m_1_30;32.3138503087125;30;34.627700617425006
10m_1_30;33.8138503087125;34;33.627700617425006
10m_1_30;43.91385021334507;56;31.82770042669014
10m_1_30;131.339370521058;235;27.678741042115956
10m_1_50;44.35696051632547;0;88.71392103265094
10m_1_50;46.006960611692904;11;81.01392122338581
10m_1_50;44.15034911666642;14;74.30069823333284
10m_1_50;49.365580021495035;31;67.73116004299007
10m_1_50;65.50896852646855;70;61.017937052937114
10m_1_50;68.50896852646855;81;56.017937052937114
10m_1_50;83.00896852646855;113;53.017937052937114
10m_1_50;96.00896852646855;143;49.017937052937114
10m_1_50;158.50896852646855;276;41.017937052937114
10m_1_70;177.93375306646888;55;300.86750613293776
10m_1_70;176.11789123801182;68;284.23578247602364
10m_1_70;144.35445238103253;80;208.70890476206506
10m_1_70;139.1544523333488;93;185.3089046666976
10m_1_70;139.56311594392085;121;158.1262318878417
10m_1_70;148.56311594392085;160;137.1262318878417
10m_1_70;156.06311594392085;192;120.1262318878417
10m_1_70;167.06311594392085;234;100.1262318878417
10m_1_70;304.4205060521926;543;65.84101210438523
10m_3_30;76.33465934821808;2;150.66931869643616
10m_3_30;53.35052146277742;4;102.70104292555484
10m_3_30;49.35052146277742;17;81.70104292555484
10m_3_30;67.7071329578039;56;79.41426591560781
10m_3_30;67.46389417569641;71;63.92778835139282
10m_3_30;86.48897676396163;122;50.97795352792326
10m_3_30;103.98897676396163;161;46.97795352792326
10m_3_50;100.78343104804574;35;166.56686209609148
10m_3_50;92.28343104804574;36;148.56686209609148
10m_3_50;96.68941350964181;65;128.37882701928362
10m_3_50;82.93941350964181;67;98.87882701928363
10m_3_50;91.93941350964181;95;88.87882701928363
10m_3_50;104.43941350964181;133;75.87882701928363
10m_3_50;156.9394135096418;244;69.87882701928363
10m_3_50;233.9394135096418;411;56.878827019283634
10m_3_70;300.03202437513755;534;66.0640487502751
10m_3_70;144.8886344672431;72;217.7772689344862
10m_3_70;119.18863465797796;74;164.3772693159559
10m_3_70;120.68863465797796;83;158.3772693159559
10m_3_70;105.68863465797796;84;127.3772693159559
10m_3_70;106.73202301990032;103;110.46404603980065
10m_3_70;124.56311570550227;148;101.12623141100454
10m_3_70;137.00650416279208;189;85.01300832558415
10m_3_70;169.14107976768042;258;80.28215953536085
10m_3_70;201.3974487702492;328;74.79489754049841
10m_5_30;239.85112362340664;13;466.7022472468133
10m_5_30;183.95961355272365;16;351.9192271054473
10m_5_30;128.95710589426784;27;230.91421178853568
10m_5_30;99.95710589426784;30;169.91421178853568
10m_5_30;84.23158703715958;47;121.46317407431918
10m_5_30;86.33897714543136;97;75.67795429086271
10m_5_30;121.9389772884825;187;56.87795457696501
10m_5_50;452.2972825689443;778;126.59456513788865
10m_5_50;221.67604093977397;74;369.35208187954794
10m_5_50;205.92604093977397;85;326.85208187954794
10m_5_50;201.92604093977397;109;294.85208187954794
10m_5_50;204.92604093977397;145;264.85208187954794
10m_5_50;211.3472825212606;182;240.69456504252122
10m_5_50;214.8472825212606;201;228.69456504252122
10m_5_50;223.3472825212606;245;201.69456504252122
10m_5_50;226.8472825212606;269;184.69456504252122
10m_5_50;252.29728256894433;345;159.59456513788865
10m_5_70;313.3227731156232;532;94.6455462312464
10m_5_70;428.3227731156232;770;86.6455462312464
10m_5_70;159.73375325720374;107;212.4675065144075
10m_5_70;150.63863494408025;114;187.2772698881605
10m_5_70;171.13863494408025;164;178.2772698881605
10m_5_70;169.13863494408025;173;165.2772698881605
10m_5_70;159.63863494408025;174;145.2772698881605
10m_5_70;175.13863494408025;211;139.2772698881605
10m_5_70;186.13863494408025;248;124.27726988816049
10m_5_70;218.63863494408025;327;110.2772698881605
10m_5_70;257.63863494408025;414;101.27726988816049
10s_1_30;29.967038316734197;0;59.93407663346839
10s_1_30;28.967038316734197;1;56.93407663346839
10s_1_30;35.9670383167342;16;55.93407663346839
10s_1_30;42.9670383167342;32;53.93407663346839
10s_1_30;37.90899628953933;34;41.817992579078656
10s_1_30;42.7089952881813;46;39.41799057636259
10s_1_30;76.7089952881813;117;36.41799057636259
10s_1_50;68.49199673043364;0;136.98399346086728
10s_1_50;59.741996492015055;1;118.48399298403011
10s_1_50;59.078166638561285;10;108.15633327712257
10s_1_50;50.078166638561285;11;89.15633327712257
10s_1_50;68.57816663856129;61;76.15633327712257
10s_1_50;68.09199591981047;72;64.18399183962094
10s_1_50;76.59199591981047;97;56.183991839620944
10s_1_50;164.6472708233622;286;43.294541646724355
10s_1_70;131.66468945240365;141;122.32937890480727
10s_1_70;124.66468945240364;142;107.32937890480727
10s_1_70;117.72363262407661;150;85.44726524815323
10s_1_70;118.86343401938306;156;81.72686803876613
10s_1_70;116.98836304980392;172;61.97672609960783
10s_1_70;137.12816492194753;219;55.25632984389503
10s_1_70;136.86793764923112;227;46.73587529846222
10s_1_70;166.12813587245495;288;44.256271744909874
10s_1_70;187.36793764923112;335;39.73587529846222
10s_3_30;127.44959277833543;15;239.89918555667086
10s_3_30;99.04959292138658;19;179.09918584277315
10s_3_30;85.9893654579353;30;141.9787309158706
10s_3_30;74.04959339822373;44;104.09918679644747
10s_3_30;93.87916780691606;100;87.75833561383213
10s_3_30;110.54959339822373;142;79.09918679644747
10s_3_30;112.88939555646962;164;61.77879111293926
10s_3_30;139.03254049300233;221;57.06508098600463
10s_3_30;199.00976799239643;346;52.01953598479287
10s_3_50;264.18936550561904;451;77.37873101123805
10s_3_50;116.06469002460823;57;175.12938004921645
10s_3_50;109.60446294262667;60;159.20892588525334
10s_3_50;107.53746257289782;67;148.07492514579565
10s_3_50;101.57723572933486;70;133.15447145866972
10s_3_50;103.72723558628371;87;120.45447117256742
10s_3_50;106.22723558628371;106;106.45447117256742
10s_3_50;126.68936550561902;153;100.37873101123805
10s_3_50;142.7272355862837;194;91.45447117256742
10s_3_50;184.18936550561904;285;83.37873101123805
10s_3_70;263.1089960988045;475;51.21799219760892
10s_3_70;288.6089960988045;529;48.21799219760892
10s_3_70;367.1089960988045;689;45.21799219760892
10s_3_70;203.96469035839425;155;252.9293807167885
10s_3_70;200.96469035839425;168;233.9293807167885
10s_3_70;167.80449275505873;171;164.60898551011744
10s_3_70;169.80449275505873;194;145.60898551011744
10s_3_70;163.20449285042616;207;119.4089857008523
10s_3_70;166.20899648027418;245;87.41799296054837
10s_3_70;162.70449285042616;264;61.4089857008523
10s_3_70;199.10899609880445;341;57.21799219760892
10s_3_70;224.60899609880445;395;54.21799219760892
10s_5_30;85.25219399998315;24;146.5043879999663
10s_5_30;86.39533893651583;35;137.79067787303165
10s_5_30;78.25219399998315;39;117.5043879999663
10s_5_30;76.86922337152087;56;97.73844674304175
10s_5_30;76.52942121327499;73;80.05884242654996
10s_5_30;101.52942121327497;129;74.05884242654994
10s_5_30;118.02942121327497;170;66.05884242654994
10s_5_30;146.3078358194478;230;62.61567163889559
10s_5_30;196.6476379776937;340;53.29527595538738
10s_5_50;216.23888525975752;365;67.47777051951508
10s_5_50;307.2442660068632;555;59.488532013726356
10s_5_50;242.17188489002868;77;407.34376978005736
10s_5_50;173.07188498539614;79;267.1437699707923
10s_5_50;168.57188498539614;88;249.14376997079225
10s_5_50;143.73888525975752;92;195.47777051951508
10s_5_50;135.0733066708978;110;160.1466133417956
10s_5_50;123.5733066708978;138;109.14661334179559
10s_5_50;140.0733066708978;189;91.14661334179559
10s_5_50;170.5733066708978;263;78.14661334179559
10s_5_50;185.48888525975752;299;71.97777051951508
10s_5_70;336.26922322846974;639;33.538446456939454
10s_5_70;120.46468988155708;105;135.92937976311416
10s_5_70;109.72942030728437;106;113.45884061456874
10s_5_70;117.32942021191694;126;108.65884042383388
10s_5_70;109.62942135632612;128;91.25884271265224
10s_5_70;130.7294212609587;181;80.45884252191738
10s_5_70;133.2294212609587;203;63.458842521917376
10s_5_70;163.82942116559127;273;54.65884233118251
10s_5_70;167.529421213275;287;48.058842426549944
10s_5_70;195.529421213275;348;43.058842426549944
20l_1_30;133.061162613171;0;266.122325226342
20l_1_30;148.061162613171;32;264.122325226342
20l_1_30;142.09817213193813;36;248.19634426387626
20l_1_30;157.09817213193813;68;246.19634426387626
20l_1_30;176.09817213193813;107;245.19634426387626
20l_1_30;190.59817213193813;138;243.19634426387626
20l_1_30;224.59817213193813;208;241.19634426387626
20l_1_30;239.59817213193813;239;240.19634426387626
20l_1_50;83.37160687108621;11;155.74321374217243
20l_1_50;81.37160687108621;16;146.74321374217243
20l_1_50;84.77427601767937;26;143.54855203535874
20l_1_50;82.27427601767937;31;133.54855203535874
20l_1_50;102.06353584406595;77;127.1270716881319
20l_1_50;158.77427601767937;195;122.54855203535875
20l_1_50;181.56353584406594;243;120.1270716881319
20l_1_50;208.27427601767937;299;117.54855203535875
20l_1_70;319.29366721175484;424;214.58733442350962
20l_1_70;390.59366692565254;576;205.18733385130503
20l_1_70;441.1654691351384;679;203.33093827027676
20l_1_70;300.65576845936016;100;501.3115369187203
20l_1_70;284.9156798562286;108;461.8313597124572
20l_1_70;284.27007439243386;147;421.5401487848677
20l_1_70;272.04387769442644;150;394.0877553888529
20l_1_70;253.8982722306317;154;353.7965444612634
20l_1_70;242.7982737565106;169;316.5965475130212
20l_1_70;232.24827332735717;183;281.49654665471434
20l_1_70;252.19366683028508;260;244.38733366057016
20l_1_70;286.29366721175484;345;227.58733442350962
20l_3_30;189.6936656381922;99;280.3873312763844
20l_3_30;189.6936656381922;113;266.3873312763844
20l_3_30;198.54366578124333;132;265.08733156248667
20l_3_30;203.04366578124333;147;259.08733156248667
20l_3_30;237.6742268079252;23;452.3484536158504
20l_3_30;221.88807554813397;31;412.77615109626794
20l_3_30;221.0436686422663;35;407.0873372845326
20l_3_30;209.24366845153142;42;376.48733690306284
20l_3_30;208.24366845153142;47;369.48733690306284
20l_3_30;195.48807187648785;51;339.9761437529757
20l_3_30;192.04366578124336;55;329.0873315624867
20l_3_30;180.1936656381922;62;298.3873312763844
20l_3_30;179.1936656381922;74;284.3873312763844
20l_3_50;233.59133631976405;216;251.1826726395281
20l_3_50;245.09133631976405;242;248.1826726395281
20l_3_50;259.5913363197641;273;246.1826726395281
20l_3_50;311.5342437981448;97;526.0684875962896
20l_3_50;307.43170696640414;101;513.8634139328083
20l_3_50;246.7817068710367;111;382.5634137420734
20l_3_50;226.34555503904085;126;326.6911100780817
20l_3_50;226.88950624074948;152;301.77901248149897
20l_3_50;225.34555503904085;157;293.6911100780817
20l_3_50;226.09133631976405;172;280.1826726395281
20l_3_50;229.09133631976405;182;276.1826726395281
20l_3_50;231.84555503904085;198;265.6911100780817
20l_3_70;572.0899754744921;799;345.17995094898436
20l_3_70;621.5899754744921;902;341.17995094898436
20l_3_70;655.0899754744921;970;340.17995094898436
20l_3_70;501.58621226863954;387;616.1724245372791
20l_3_70;449.08621226863954;426;472.1724245372791
20l_3_70;446.08621226863954;451;441.1724245372791
20l_3_70;454.14180593497645;494;414.28361186995295
20l_3_70;459.14180593497645;518;400.28361186995295
20l_3_70;478.64180593497645;571;386.28361186995295
20l_3_70;505.08997547449223;640;370.1799509489844
20l_3_70;523.0899754744921;687;359.17995094898436
20l_3_70;543.0899754744921;734;352.17995094898436
20l_5_30;288.5556858469066;281;296.1113716938133
20l_5_30;298.5556858469066;306;291.1113716938133
20l_5_30;312.0556858469066;340;284.1113716938133
20l_5_30;327.0556858469066;378;276.1113716938133
20l_5_30;314.43073231964155;75;553.8614646392831
20l_5_30;268.87373709266325;79;458.7474741853265
20l_5_30;250.87373709266322;91;410.74747418532644
20l_5_30;250.87373709266322;101;400.74747418532644
20l_5_30;249.87373709266322;123;376.74747418532644
20l_5_30;250.87373709266322;156;345.74747418532644
20l_5_30;256.45129154912;181;331.90258309824
20l_5_30;268.8737370926632;220;317.74747418532644
20l_5_30;275.8737370926632;244;307.74747418532644
20l_5_50;378.56729846818155;306;451.13459693636315
20l_5_50;393.06729846818155;336;450.13459693636315
20l_5_50;406.56729846818155;368;445.13459693636315
20l_5_50;430.56729846818155;420;441.13459693636315
20l_5_50;407.50766806577985;134;681.0153361315597
20l_5_50;397.42151756892804;142;652.8430351378561
20l_5_50;382.6604442396954;155;610.3208884793908
20l_5_50;364.06729846818155;158;570.1345969363631
20l_5_50;354.06729846818155;166;542.1345969363631
20l_5_50;349.06729846818155;181;517.1345969363631
20l_5_50;339.81729846818155;191;488.63459693636315
20l_5_50;351.81729846818155;235;468.63459693636315
20l_5_50;365.56729846818155;275;456.13459693636315
20l_5_70;5256.161958841531;1158;9354.323917683061
20l_5_70;4383.7728403493;1236;7531.545680698601
20l_5_70;3574.1346927001377;1304;5844.2693854002755
20l_5_70;3054.7564985103245;1475;4634.512997020649
20m_1_30;392.5280496239509;402;383.0560992479017
20m_1_30;260.663203864727;2;519.326407729454
20m_1_30;261.663203864727;10;513.326407729454
20m_1_30;252.47826891375783;33;471.95653782751566
20m_1_30;260.47827272845507;64;456.9565454569102
20m_1_30;263.62827234698534;81;446.25654469397074
20m_1_30;274.7617946106021;113;436.5235892212042
20m_1_30;279.77804914711373;138;421.5560982942274
20m_1_30;294.27804914711373;179;409.55609829422747
20m_1_30;302.5280496239509;205;400.0560992479017
20m_1_50;438.2195253443906;493;383.43905068878126
20m_1_50;496.2195253443906;615;377.43905068878126
20m_1_50;386.4011421403292;7;765.8022842806585
20m_1_50;356.90114285558496;15;698.8022857111699
20m_1_50;335.902243391886;35;636.804486783772
20m_1_50;322.87392608714265;73;572.7478521742853
20m_1_50;323.05409205440077;126;520.1081841088015
20m_1_50;334.2195253443906;178;490.43905068878126
20m_1_50;349.7195253443906;255;444.43905068878126
20m_1_50;377.7195253443906;347;408.43905068878126
20m_1_50;416.35409129146126;437;395.7081825829226
20m_1_70;532.4078664223093;734;330.81573284461865
20m_1_70;560.6578664223093;815;306.31573284461865
20m_1_70;629.9897377211565;992;267.9794754423131
20m_1_70;575.0588631838789;281;869.1177263677579
20m_1_70;527.0588631838789;286;768.1177263677579
20m_1_70;493.55886318387894;312;675.1177263677579
20m_1_70;495.55886318387894;379;612.1177263677579
20m_1_70;489.55886318387894;422;557.1177263677579
20m_1_70;455.0588605612746;432;478.11772112254926
20m_1_70;457.6578664223093;479;436.3157328446186
20m_1_70;476.6578664223093;565;388.31573284461865
20m_1_70;491.1578664223093;625;357.31573284461865
20m_3_30;284.3160636442517;310;258.6321272885034
20m_3_30;308.8160636442517;366;251.6321272885034
20m_3_30;333.3160636442517;419;247.6321272885034
20m_3_30;350.3160636442517;455;245.6321272885034
20m_3_30;321.30282323979554;82;560.6056464795911
20m_3_30;294.48723109235164;84;504.9744621847033
20m_3_30;275.85216298804824;90;461.7043259760964
20m_3_30;246.63657074523692;92;401.27314149047385
20m_3_30;235.13657074523692;111;359.27314149047385
20m_3_30;221.15724981246882;128;314.31449962493764
20m_3_30;228.00063836512604;157;299.0012767302521
20m_3_30;251.3160636442517;212;290.6321272885034
20m_3_30;263.00063836512606;260;266.00127673025213
20m_3_50;376.27220391848374;467;285.5444078369675
20m_3_50;398.27220391848374;519;277.5444078369675
20m_3_50;430.77220391848374;592;269.5444078369675
20m_3_50;484.27220391848374;707;261.5444078369675
20m_3_50;575.5662408926703;164;987.1324817853407
20m_3_50;516.5827189628397;171;862.1654379256795
20m_3_50;460.73760160339054;184;737.4752032067811
20m_3_50;398.73760160339054;189;608.4752032067811
20m_3_50;395.2034183250871;230;560.4068366501742
20m_3_50;343.6857072712485;247;440.3714145424969
20m_3_50;335.42112262723066;300;370.8422452544613
20m_3_50;343.24302398395923;339;347.48604796791847
20m_3_50;343.7722039184838;380;307.54440783696754
20m_3_70;404.6868636868017;448;361.3737273736034
20m_3_70;420.2868669292944;497;343.57373385858875
20m_3_70;469.7868669292944;606;333.57373385858875
20m_3_70;511.2868669292944;690;332.57373385858875
20m_3_70;453.0913881614051;205;701.1827763228102
20m_3_70;431.9078661838907;218;645.8157323677814
20m_3_70;413.22329122459774;225;601.4465824491955
20m_3_70;397.2435012679299;244;550.4870025358598
20m_3_70;394.4074289193036;268;520.8148578386072
20m_3_70;380.59449569299755;292;469.1889913859951
20m_3_70;383.59449569299755;331;436.1889913859951
20m_3_70;384.47907022313706;354;414.9581404462741
20m_3_70;391.4689796015448;404;378.93795920308963
20m_5_30;422.94631713625074;424;421.8926342725015
20m_5_30;444.44631713625074;470;418.8926342725015
20m_5_30;475.44631713625074;534;416.8926342725015
20m_5_30;599.8190428743872;60;1139.6380857487743
20m_5_30;598.3190428743872;66;1130.6380857487743
20m_5_30;338.74637505238746;68;609.4927501047749
20m_5_30;323.71068148000694;94;553.4213629600139
20m_5_30;303.06658504803596;120;486.1331700960719
20m_5_30;322.06658504803596;161;483.1331700960719
20m_5_30;312.5308914756554;185;440.06178295131076
20m_5_30;349.0308914756554;269;429.06178295131076
20m_5_30;386.0308914756554;349;423.06178295131076
20m_5_50;482.524478814716;435;530.048957629432
20m_5_50;492.524478814716;469;516.048957629432
20m_5_50;512.0244788147161;528;496.04895762943204
20m_5_50;551.7234843419646;620;483.4469686839294
20m_5_50;468.54626636623345;151;786.0925327324669
20m_5_50;456.09626608013116;163;749.1925321602623
20m_5_50;444.62978796227816;183;706.2595759245563
20m_5_50;446.07978824838045;226;666.1595764967609
20m_5_50;450.12978796227816;262;638.2595759245563
20m_5_50;441.62978796227816;274;609.2595759245563
20m_5_50;449.22447767030684;310;588.4489553406137
20m_5_50;469.024478814716;365;573.048957629432
20m_5_50;470.4234831975555;392;548.846966395111
20m_5_70;654.8920370206229;755;554.7840740412458
20m_5_70;705.7001542479306;866;545.4003084958614
20m_5_70;732.6920400723807;944;521.3840801447615
20m_5_70;782.721830458202;1069;496.443660916404
20m_5_70;842.221830458202;1193;491.443660916404
20m_5_70;1008.116473977696;368;1648.232947955392
20m_5_70;904.8154795049447;396;1413.6309590098895
20m_5_70;820.5962670338056;411;1230.1925340676112
20m_5_70;726.5713587163305;447;1006.1427174326609
20m_5_70;702.5713587163305;487;918.1427174326609
20m_5_70;658.7703642435791;511;806.5407284871583
20m_5_70;648.7703642435791;570;727.5407284871583
20m_5_70;618.7703642435791;601;636.5407284871583
20m_5_70;628.3920370206229;684;572.7840740412458
20s_1_30;296.4315599762465;476;116.863119952493
20s_1_30;143.21763902934077;0;286.43527805868155
20s_1_30;115.26763826640132;1;229.53527653280264
20s_1_30;113.8409676046073;17;210.6819352092146
20s_1_30;89.84096688935156;18;161.68193377870313
20s_1_30;96.84096688935156;41;152.68193377870313
20s_1_30;107.84096688935156;74;141.68193377870313
20s_1_30;132.48236659404512;137;127.96473318809025
20s_1_30;154.98236659404512;186;123.96473318809025
20s_1_30;186.48236659404512;251;121.96473318809025
20s_1_50;295.25643935935574;496;94.51287871871148
20s_1_50;437.4356044465139;793;81.87120889302778
20s_1_50;216.9199027292507;52;381.8398054585014
20s_1_50;192.4076638678646;64;320.8153277357292
20s_1_50;152.12389985603693;74;230.24779971207386
20s_1_50;152.2426751821729;110;194.48535036434578
20s_1_50;149.2426751821729;133;165.48535036434578
20s_1_50;179.08087354929793;201;157.16174709859587
20s_1_50;210.7686373581999;281;140.53727471639982
20s_1_50;213.97440770588227;317;110.94881541176454
20s_1_50;246.75643935935574;393;100.51287871871148
20s_1_70;491.0332261230813;872;110.06645224616261
20s_1_70;529.0332261230812;952;106.06645224616261
20s_1_70;554.0332261230812;1006;102.06645224616261
20s_1_70;437.6613949602124;474;401.3227899204249
20s_1_70;402.72363448917054;477;328.4472689783411
20s_1_70;397.1613949602124;488;306.3227899204249
20s_1_70;372.8434262322162;494;251.68685246443238
20s_1_70;385.7434263275836;551;220.48685265516724
20s_1_70;405.7434263275836;608;203.48685265516724
20s_1_70;392.5999122544755;620;165.19982450895094
20s_1_70;421.44546531825347;692;150.89093063650688
20s_1_70;453.23194333574435;779;127.46388667148871
20s_3_30;276.28041954727405;289;263.56083909454816
20s_3_30;298.28041954727405;335;261.56083909454816
20s_3_30;331.28041954727405;402;260.56083909454816
20s_3_30;345.28041954727405;431;259.56083909454816
20s_3_30;365.9846287866112;77;654.9692575732224
20s_3_30;350.0346287389275;78;622.069257477855
20s_3_30;293.8672378415515;82;505.734475683103
20s_3_30;268.8672378415515;83;454.734475683103
20s_3_30;252.0258361818256;94;410.0516723636512
20s_3_30;234.71178848080544;108;361.4235769616109
20s_3_30;233.30319204787997;144;322.60638409575995
20s_3_30;217.30319204787997;159;275.60638409575995
20s_3_30;248.80319204787997;230;267.60638409575995
20s_3_50;389.1448818415927;515;263.28976368318536
20s_3_50;438.1448818415927;622;254.28976368318536
20s_3_50;470.6448818415927;692;249.28976368318536
20s_3_50;536.5448833674716;827;246.08976673494317
20s_3_50;412.8730774608357;185;640.7461549216714
20s_3_50;387.96944032526744;196;579.9388806505349
20s_3_50;362.331675753426;208;516.663351506852
20s_3_50;338.981676087212;223;454.963352174424
20s_3_50;326.61084002996097;241;412.221680059922
20s_3_50;327.8108388855518;282;373.62167777110363
20s_3_50;333.29488146012295;333;333.5897629202459
20s_3_50;345.8034801818668;383;308.60696036373355
20s_3_50;359.4534798003971;435;283.9069596007941
20s_3_70;587.8076026813663;900;275.6152053627327
20s_3_70;615.0348301807604;957;273.0696603615209
20s_3_70;619.2848297039233;976;262.5696594078466
20s_3_70;654.7848297039233;1054;255.5696594078466
20s_3_70;544.1358873839156;568;520.2717747678313
20s_3_70;548.6358873839156;582;515.2717747678313
20s_3_70;489.7464074666136;585;394.49281493322724
20s_3_70;495.7464074666136;616;375.49281493322724
20s_3_70;475.0348301807604;617;333.0696603615209
20s_3_70;495.0348301807604;675;315.0696603615209
20s_3_70;517.0348301807604;726;308.0696603615209
20s_3_70;544.0348301807604;792;296.0696603615209
20s_3_70;563.8076026813663;840;287.6152053627327
20s_5_30;354.77289711762035;450;259.54579423524075
20s_5_30;378.77289711762035;505;252.54579423524075
20s_5_30;414.27289711762035;583;245.54579423524075
20s_5_30;449.27289711762035;661;237.54579423524075
20s_5_30;492.4330930520259;88;896.8661861040518
20s_5_30;406.1330938149653;92;720.2661876299306
20s_5_30;402.4762414217861;104;700.9524828435722
20s_5_30;340.3330945779048;119;561.6661891558095
20s_5_30;295.8330945779047;149;442.6661891558095
20s_5_30;270.7262414217861;188;353.4524828435721
20s_5_30;278.2262414217861;233;323.4524828435721
20s_5_30;290.7330961037836;287;294.4661922075673
20s_5_30;325.27289711762035;378;272.54579423524075
20s_5_50;458.35027227911644;521;395.7005445582328
20s_5_50;484.35027227911644;582;386.7005445582328
20s_5_50;512.3502722791164;651;373.7005445582328
20s_5_50;599.7502738049953;826;373.50054760999063
20s_5_50;643.5900759632412;924;363.18015192648244
20s_5_50;436.9502697995632;228;645.9005395991264
20s_5_50;410.40027008566545;252;568.8005401713309
20s_5_50;413.60026989493065;294;533.2005397898613
20s_5_50;405.7502699902981;305;506.5005399805961
20s_5_50;405.2502699902981;332;478.5005399805961
20s_5_50;408.7502699902981;359;458.5005399805961
20s_5_50;415.7502699902981;393;438.5005399805961
20s_5_50;423.35027227911644;418;428.7005445582328
20s_5_50;430.35027227911644;452;408.7005445582328
20s_5_70;589.6227851134352;775;404.2455702268702
20s_5_70;625.6227851134352;868;383.2455702268702
20s_5_70;700.171496985522;1030;370.34299397104394
20s_5_70;736.171496985522;1105;367.34299397104394
20s_5_70;793.171496985522;1222;364.34299397104394
20s_5_70;819.7816741321797;388;1251.5633482643593
20s_5_70;766.2378101753814;409;1123.4756203507627
20s_5_70;719.6092638938655;447;992.2185277877311
20s_5_70;633.9378090309722;453;814.8756180619444
20s_5_70;609.9378090309722;510;709.8756180619442
20s_5_70;603.9378090309722;552;655.8756180619442
20s_5_70;574.0150330971387;576;572.0300661942773
20s_5_70;558.0727851611189;617;499.14557032223763
20s_5_70;555.6663186501312;656;455.33263730026226
30l_1_30;467.4261293726339;237;697.8522587452678
30l_1_30;365.42612937263397;0;730.8522587452679
30l_1_30;362.39843775375624;4;720.7968755075125
30l_1_30;361.39843775375624;7;715.7968755075125
30l_1_30;365.42612937263397;21;709.8522587452679
30l_1_30;378.39843775375624;49;707.7968755075125
30l_1_30;382.4261293726339;61;703.8522587452678
30l_1_30;402.9261293726339;104;701.8522587452678
30l_1_30;412.4261293726339;125;699.8522587452678
30l_1_30;425.9261293726339;153;698.8522587452678
30l_1_50;278.29268699851895;271;285.5853739970379
30l_1_50;396.906241827837;24;769.812483655674
30l_1_50;355.906241827837;29;682.812483655674
30l_1_50;270.724230931757;33;508.44846186351407
30l_1_50;254.50817035478818;49;460.01634070957635
30l_1_50;227.9258731925128;68;387.8517463850256
30l_1_50;213.10342803043926;71;355.2068560608785
30l_1_50;222.10342803043926;135;309.2068560608785
30l_1_50;226.60342803043926;159;294.2068560608785
30l_1_50;259.10342803043926;228;290.2068560608785
30l_1_70;499.7260960476807;469;530.4521920953614
30l_1_70;516.6093815236302;527;506.2187630472603
30l_1_70;537.6093815236302;576;499.2187630472603
30l_1_70;574.0316897140176;654;494.0633794280352
30l_1_70;628.2027947146742;279;977.4055894293484
30l_1_70;583.0195203774308;301;865.0390407548615
30l_1_70;584.4998409191319;340;828.9996818382639
30l_1_70;537.3538429443403;343;731.7076858886805
30l_1_70;516.0999764414494;348;684.1999528828987
30l_1_70;505.09997644144937;359;651.1999528828987
30l_1_70;499.7260960476807;386;613.4521920953614
30l_1_70;508.7260960476807;412;605.4521920953614
30l_1_70;503.2260960476807;441;565.4521920953614
30l_3_30;387.48961452960447;134;640.9792290592089
30l_3_30;415.7534644142224;195;636.5069288284448
30l_3_30;538.8000057277147;69;1008.6000114554296
30l_3_30;529.3000057277147;72;986.6000114554296
30l_3_30;497.5954091488556;76;919.1908182977112
30l_3_30;487.9954094826416;79;896.9908189652832
30l_3_30;459.40001588434626;84;834.8000317686925
30l_3_30;436.7753206118004;88;785.5506412236008
30l_3_30;425.57112873536295;97;754.1422574707259
30l_3_30;394.24643460722626;104;684.4928692144525
30l_3_30;395.18961386203245;131;659.3792277240649
30l_3_50;951.2648972653797;343;1559.5297945307593
30l_3_50;963.6262134653823;371;1556.2524269307646
30l_3_50;965.1262134653823;399;1531.2524269307646
30l_3_50;982.8762039286391;437;1528.7524078572783
30l_3_50;1389.199096103177;212;2566.398192206354
30l_3_50;1308.0490960078096;222;2394.098192015619
30l_3_50;1226.7202090972448;223;2230.4404181944897
30l_3_50;1164.7702088111425;229;2100.540417622285
30l_3_50;1090.884722934956;239;1942.769445869912
30l_3_50;1027.6485723427365;250;1805.297144685473
30l_3_50;1009.9485725334714;271;1748.8971450669428
30l_3_50;968.7648972653797;294;1643.5297945307593
30l_3_50;959.7648972653797;315;1604.5297945307593
30l_3_70;1394.7391950424674;862;1927.4783900849347
30l_3_70;1503.4634970031789;685;2321.9269940063577
30l_3_70;1453.4634970031789;695;2211.9269940063577
30l_3_70;1411.9634931884816;718;2105.926986376963
30l_3_70;1403.9634931884816;735;2072.926986376963
30l_3_70;1399.7391950424674;737;2062.4783900849347
30l_3_70;1389.7391950424674;754;2025.4783900849347
30l_3_70;1391.2391950424674;790;1992.4783900849347
30l_3_70;1392.2391950424674;795;1989.4783900849347
30l_3_70;1393.2391950424674;826;1960.4783900849347
30l_5_30;833.3301109662355;214;1452.660221932471
30l_5_30;828.8301109662355;223;1434.660221932471
30l_5_30;878.8301109662355;329;1428.660221932471
30l_5_30;927.1718431551508;176;1678.3436863103016
30l_5_30;922.8893326176337;177;1668.7786652352675
30l_5_30;910.1094214884749;182;1638.2188429769499
30l_5_30;906.1094214884749;183;1629.2188429769499
30l_5_30;907.0524262614965;191;1623.104852522993
30l_5_30;896.4301106324494;192;1600.8602212648989
30l_5_30;894.030115067035;201;1587.06023013407
30l_5_30;890.2524191566229;204;1576.5048383132457
30l_5_30;854.3301109662355;205;1503.660221932471
30l_5_50;2623.4124388388664;573;4673.824877677733
30l_5_50;2147.352654530562;574;3720.7053090611244
30l_5_50;2138.9381406928514;577;3700.8762813857024
30l_5_50;2135.852654530562;579;3692.7053090611244
30l_5_50;1999.6026545305624;595;3404.205309061125
30l_5_50;1898.6026545305626;638;3159.2053090611253
30l_5_50;1886.3526545305624;667;3105.705309061125
30l_5_50;1874.7526484270468;671;3078.5052968540936
30l_5_50;1864.7526484270468;674;3055.5052968540936
30l_5_70;8962.446865081849;1847;16077.8937301637
30l_5_70;8994.795816929218;2264;15725.591633858437
30l_5_70;8919.46873474216;2265;15573.93746948432
30l_5_70;6671.607235350764;2473;10870.214470701529
30l_5_70;6065.941863723352;2522;9609.883727446704
30m_1_30;341.15709536240877;96;586.3141907248175
30m_1_30;335.3090217751003;108;562.6180435502006
30m_1_30;356.3735734802618;157;555.7471469605237
30m_1_30;351.5872722969215;168;535.174544593843
30m_1_30;345.7391987096131;180;511.47839741922616
30m_1_30;460.60731107886363;0;921.2146221577273
30m_1_30;440.2073112219148;14;866.4146224438296
30m_1_30;421.10731107886363;26;816.2146221577273
30m_1_30;406.55069953615345;31;782.1013990723069
30m_1_30;388.60731107886363;34;743.2146221577273
30m_1_30;374.05069953615345;39;709.1013990723069
30m_1_30;358.69970511108585;56;661.3994102221717
30m_1_30;341.299705254137;64;618.599410508274
30m_1_30;348.299705254137;88;608.599410508274
30m_1_50;797.2783607169688;438;1156.5567214339376
30m_1_50;829.2783607169688;518;1140.5567214339376
30m_1_50;847.7783607169688;558;1137.5567214339376
30m_1_50;981.3756485554238;60;1902.7512971108476
30m_1_50;895.3756483170055;74;1716.751296634011
30m_1_50;796.6557071241101;100;1493.3114142482202
30m_1_50;760.8557071717938;126;1395.7114143435876
30m_1_50;751.028372399479;166;1336.056744798958
30m_1_50;753.1283632442056;230;1276.2567264884112
30m_1_50;756.5783637687265;289;1224.156727537453
30m_1_50;768.5783637687266;345;1192.1567275374532
30m_1_50;778.2783607169688;387;1169.5567214339376
30m_1_70;1062.0269560374431;947;1177.0539120748865
30m_1_70;1085.7269560851269;1037;1134.453912170254
30m_1_70;1134.2269560851269;1138;1130.453912170254
30m_1_70;1197.7269560851269;1271;1124.453912170254
30m_1_70;1177.522647391215;602;1753.0452947824301
30m_1_70;1140.631504247533;628;1653.2630084950663
30m_1_70;1109.3428178659;663;1555.6856357318002
30m_1_70;1102.6428178182164;697;1508.285635636433
30m_1_70;1078.6428178182164;717;1440.285635636433
30m_1_70;1076.0269560374431;766;1386.0539120748863
30m_1_70;1053.1428178182164;799;1307.285635636433
30m_1_70;1052.5269560374431;862;1243.0539120748865
30m_1_70;1063.5269560374431;915;1212.0539120748865
30m_3_30;660.9979264648686;258;1063.995852929737
30m_3_30;662.9979264648686;272;1053.995852929737
30m_3_30;699.9979264648686;359;1040.995852929737
30m_3_30;735.4951496756142;141;1329.9902993512285
30m_3_30;727.9951496756142;154;1301.9902993512285
30m_3_30;705.1949969506876;156;1254.3899939013752
30m_3_30;675.5949977613108;158;1193.1899955226215
30m_3_30;670.5949977613108;165;1176.1899955226215
30m_3_30;665.5450087762491;177;1154.0900175524982
30m_3_30;656.3979272754917;188;1124.7958545509834
30m_3_30;649.3979272754917;196;1102.7958545509834
30m_3_30;663.8979272754917;236;1091.7958545509834
30m_3_50;7536.774697231812;1517;13556.549394463624
30m_3_50;7423.384373511681;1766;13080.768747023361
30m_3_50;6194.974657864151;1776;10613.949315728301
30m_3_50;6109.91117724397;2019;10200.82235448794
30m_3_70;1214.0556897188874;839;1589.1113794377748
30m_3_70;1233.0556897188874;894;1572.1113794377748
30m_3_70;1270.5556897188874;981;1560.1113794377748
30m_3_70;1319.0556897188874;1091;1547.1113794377748
30m_3_70;1321.7538919702615;556;2087.507783940523
30m_3_70;1288.2538919702615;592;1984.5077839405228
30m_3_70;1291.6507999559922;609;1974.301599911984
30m_3_70;1231.7037328080332;613;1850.4074656160662
30m_3_70;1213.5537350968516;635;1792.107470193703
30m_3_70;1225.9037412003672;683;1768.8074824007342
30m_3_70;1196.2037328080332;696;1696.4074656160662
30m_3_70;1199.2037328080332;742;1656.4074656160662
30m_3_70;1189.5556897188874;760;1619.1113794377748
30m_5_30;984.9224732536798;230;1739.8449465073595
30m_5_30;993.7833507869834;260;1727.5667015739668
30m_5_30;996.6844516570704;280;1713.3689033141409
30m_5_30;1001.9327562820358;306;1697.8655125640717
30m_5_30;1001.6844402129786;319;1684.3688804259573
30m_5_30;980.1844402129786;328;1632.3688804259573
30m_5_30;1136.4373597056947;147;2125.8747194113894
30m_5_30;1103.7639854410381;159;2048.5279708820763
30m_5_30;1091.6373657138429;172;2011.2747314276858
30m_5_30;1064.6639845827312;173;1956.3279691654625
30m_5_30;1054.1639845827312;184;1924.3279691654625
30m_5_30;1030.537364855536;188;1873.074729711072
30m_5_30;1023.6373614223085;199;1848.274722844617
30m_5_30;998.2764857963537;204;1792.5529715927073
30m_5_30;1003.9373639972291;229;1778.8747279944582
30m_5_50;1101.6239549055879;593;1610.2479098111758
30m_5_50;1127.0580930771307;646;1608.1161861542616
30m_5_50;1364.6912094580784;281;2448.382418916157
30m_5_50;1248.1516877856566;286;2210.303375571313
30m_5_50;1120.9016877856566;292;1949.8033755713134
30m_5_50;1071.6516877856566;318;1825.3033755713134
30m_5_50;1041.2590778939284;356;1726.518155787857
30m_5_50;1046.0165647973163;400;1692.0331295946323
30m_5_50;1047.5580930771307;429;1666.1161861542616
30m_5_50;1071.4239579573457;479;1663.8479159146914
30m_5_50;1078.0580930771307;526;1630.1161861542616
30m_5_70;1924.3242775179397;1029;2819.6485550358793
30m_5_70;1929.3242775179394;1061;2797.648555035879
30m_5_70;1964.8242775179394;1137;2792.648555035879
30m_5_70;1975.3242775179394;1187;2763.648555035879
30m_5_70;2145.2540675222913;867;3423.5081350445826
30m_5_70;2093.7540675222913;887;3300.5081350445826
30m_5_70;2062.3242775179397;897;3227.6485550358793
30m_5_70;2039.8242775179397;914;3165.6485550358793
30m_5_70;2015.254067522291;921;3109.508135044582
30m_5_70;1983.8242775179397;934;3033.6485550358793
30m_5_70;1966.8242775179397;950;2983.6485550358793
30m_5_70;1943.8242775179397;966;2921.6485550358793
30m_5_70;1945.3242775179397;996;2894.6485550358793
30s_1_30;320.5601243874046;233;408.12024877480917
30s_1_30;351.41012524571147;306;396.82025049142294
30s_1_30;375.7499274039574;363;388.4998548079147
30s_1_30;424.9512098098246;469;380.9024196196492
30s_1_30;358.46534624963755;15;701.9306924992751
30s_1_30;352.965338620243;24;681.930677240486
30s_1_30;324.81533852487564;32;617.6306770497513
30s_1_30;312.2916194989979;40;584.5832389979957
30s_1_30;305.7916194989979;67;544.5832389979957
30s_1_30;300.3678025737899;85;515.7356051475798
30s_1_30;293.06779761468346;117;469.1355952293669
30s_1_30;295.0477419194984;146;444.09548383899676
30s_1_30;304.41012667622294;187;421.8202533524459
30s_1_50;490.6954991561091;537;444.3909983122182
30s_1_50;522.1954991561091;633;411.3909983122182
30s_1_50;603.9568299920347;812;395.9136599840695
30s_1_50;663.8954961043513;936;391.79099220870256
30s_1_50;647.4929299377225;153;1141.985859875445
30s_1_50;600.4095894267252;164;1036.8191788534505
30s_1_50;582.5531264443325;198;967.106252888665
30s_1_50;558.1531215805935;249;867.306243161187
30s_1_50;508.18944045987826;259;757.3788809197565
30s_1_50;483.18944045987826;295;671.3788809197565
30s_1_50;507.35312806557886;371;643.7062561311577
30s_1_50;469.85953960920443;399;540.7190792184089
30s_1_50;479.5954930525935;470;489.19098610518694
30s_1_70;911.6201659145893;1329;494.2403318291787
30s_1_70;944.9324021056873;1419;470.8648042113747
30s_1_70;982.1201659145893;1494;470.2403318291787
30s_1_70;1005.1201659145893;1548;462.2403318291787
30s_1_70;1062.911155672051;1021;1104.8223113441022
30s_1_70;1019.5636416097138;1047;992.1272832194277
30s_1_70;977.5136411805604;1060;895.0272823611208
30s_1_70;955.2987532371619;1084;826.5975064743237
30s_1_70;876.8987605327704;1097;656.7975210655408
30s_1_70;859.3865138035711;1122;596.7730276071422
30s_1_70;861.6201659145893;1162;561.2403318291786
30s_1_70;872.1201659145893;1196;548.2403318291786
30s_1_70;880.981500946682;1247;514.9630018933639
30s_3_30;762.1171849275859;309;1215.2343698551717
30s_3_30;831.5171826387675;452;1211.034365277535
30s_3_30;852.0171826387675;499;1205.034365277535
30s_3_30;864.0171826387675;533;1195.034365277535
30s_3_30;871.2179376698315;161;1581.435875339663
30s_3_30;847.7179376698315;172;1523.435875339663
30s_3_30;812.2999690372026;174;1450.5999380744051
30s_3_30;774.5171797777447;177;1372.0343595554893
30s_3_30;774.8171799684794;180;1369.6343599369588
30s_3_30;754.6171849275859;197;1312.2343698551717
30s_3_30;740.1171849275859;220;1260.2343698551717
30s_3_30;738.1171849275859;238;1238.2343698551717
30s_3_30;750.1171849275859;275;1225.2343698551717
30s_3_50;798.0221149869416;614;982.0442299738831
30s_3_50;795.658068525698;635;956.316137051396
30s_3_50;812.5221149869416;682;943.0442299738831
30s_3_50;812.1204441271491;703;921.2408882542983
30s_3_50;1180.6179391957103;441;1920.2358783914208
30s_3_50;1100.6179391957103;453;1748.2358783914206
30s_3_50;969.8803102195246;461;1478.7606204390493
30s_3_50;904.8795454609829;471;1338.7590909219657
30s_3_50;882.3204410753913;488;1276.6408821507825
30s_3_50;860.9351498408848;514;1207.8702996817697
30s_3_50;841.435149840885;552;1130.87029968177
30s_3_50;808.0221149869416;567;1049.0442299738831
30s_3_50;805.658068525698;588;1023.316137051396
30s_3_70;1133.1023645169153;1236;1030.2047290338305
30s_3_70;1162.9023656613244;1315;1010.804731322649
30s_3_70;1181.9421666751612;1362;1001.8843333503224
30s_3_70;1230.9421666751612;1463;998.8843333503224
30s_3_70;1377.7457796104172;1034;1721.4915592208342
30s_3_70;1330.8023590809717;1048;1613.604718161943
30s_3_70;1293.9023694760217;1050;1537.8047389520432
30s_3_70;1243.4523687130823;1065;1421.9047374261643
30s_3_70;1218.1023592717065;1086;1350.204718543413
30s_3_70;1173.9523687130823;1093;1254.9047374261643
30s_3_70;1154.9523687130823;1117;1192.9047374261643
30s_3_70;1110.6023645169153;1141;1080.2047290338305
30s_3_70;1121.1023645169153;1202;1040.2047290338305
30s_5_30;750.5515862161982;377;1124.1031724323964
30s_5_30;745.2016010935175;394;1096.403202187035
30s_5_30;761.4402516609427;435;1087.8805033218855
30s_5_30;772.4402516609427;460;1084.8805033218855
30s_5_30;775.0902493721244;478;1072.1804987442488
30s_5_30;1192.084390257608;227;2157.168780515216
30s_5_30;1158.084390257608;243;2073.168780515216
30s_5_30;996.7016010935175;244;1749.403202187035
30s_5_30;977.051603382336;261;1693.103206764672
30s_5_30;811.7016010935175;266;1357.403202187035
30s_5_30;777.7016010935175;282;1273.403202187035
30s_5_30;771.5516033823359;304;1239.1032067646718
30s_5_30;742.7016010935175;327;1158.403202187035
30s_5_30;736.7016010935175;348;1125.403202187035
30s_5_50;889.1647026355528;735;1043.3294052711055
30s_5_50;901.1647026355529;769;1033.3294052711058
30s_5_50;918.1647026355528;815;1021.3294052711055
30s_5_50;930.1647026355528;849;1011.3294052711055
30s_5_50;946.1647026355528;884;1008.3294052711055
30s_5_50;1079.2491221393445;477;1681.498244278689
30s_5_50;1036.2491221393445;495;1577.498244278689
30s_5_50;1020.2491221393445;525;1515.498244278689
30s_5_50;888.0647008235717;526;1250.1294016471434
30s_5_50;867.5647008235717;532;1203.1294016471434
30s_5_50;848.6760353788271;560;1137.3520707576542
30s_5_50;851.6760353788271;599;1104.3520707576542
30s_5_50;869.0647027309203;657;1081.1294054618406
30s_5_50;873.1647026355529;700;1046.3294052711058
30s_5_70;1182.931458948923;1157;1208.8629178978458
30s_5_70;1189.7622142765947;1221;1158.5244285531894
30s_5_70;1224.4372365329184;1307;1141.8744730658368
30s_5_70;1259.348594920558;1409;1109.6971898411161
30s_5_70;1387.3286604760647;847;1927.6573209521293
30s_5_70;1296.3286604760647;855;1737.6573209521293
30s_5_70;1253.3286604760647;864;1642.6573209521293
30s_5_70;1192.3418842218591;870;1514.6837684437182
30s_5_70;1182.0918880365564;899;1465.1837760731128
30s_5_70;1137.141887273617;908;1366.2837745472339
30s_5_70;1130.7564366925994;949;1312.5128733851989
30s_5_70;1149.266868069051;1032;1266.533736138102
30s_5_70;1161.2564366925994;1097;1225.5128733851989
50l_1_30;2612.146845440301;72;5152.293690880602
50l_1_30;2790.046854595575;0;5580.09370919115
50l_1_30;2739.6468454403016;3;5476.293690880603
50l_1_30;2736.1468454403016;6;5466.293690880603
50l_1_30;2738.1468454403016;11;5465.293690880603
50l_1_30;2742.1468454403016;27;5457.293690880603
50l_1_30;2740.6468454403016;35;5446.293690880603
50l_1_30;2669.1468454403016;56;5282.293690880603
50l_1_30;2665.6468454403016;59;5272.293690880603
50l_1_30;2615.646845440301;69;5162.293690880602
50l_1_50;20723.184066325375;1484;39962.36813265075
50l_1_50;18260.96133815737;1639;34882.92267631474
50l_1_50;18355.770754046516;2243;34468.54150809303
50l_1_50;16009.949369861619;2319;29700.898739723238
50l_1_70;4095.026695870591;987;7203.053391741182
50l_1_70;4086.026695870591;1001;7171.053391741182
50l_1_70;4352.012440370896;847;7857.024880741792
50l_1_70;4306.012442278245;851;7761.024884556489
50l_1_70;4287.512430834153;884;7691.024861668306
50l_1_70;4291.012430834153;905;7677.024861668306
50l_1_70;4160.512430834153;924;7397.024861668306
50l_1_70;4129.512430834153;928;7331.024861668306
50l_1_70;4121.512430834153;941;7302.024861668306
50l_1_70;4091.512430834153;947;7236.024861668306
50l_1_70;4082.512430834153;948;7217.024861668306
50l_3_30;4842.998049269241;411;9274.996098538482
50l_3_30;4815.498034010452;428;9202.996068020904
50l_3_30;4829.048048506302;496;9162.096097012603
50l_3_30;5158.998034010452;334;9983.996068020904
50l_3_30;5107.998034010452;335;9880.996068020904
50l_3_30;5061.498034010452;342;9780.996068020904
50l_3_30;5013.998034010452;344;9683.996068020904
50l_3_30;4962.998034010452;345;9580.996068020904
50l_3_30;4965.998034010452;362;9569.996068020904
50l_3_30;4940.498049269241;369;9511.996098538482
50l_3_30;4900.498034010452;386;9414.996068020904
50l_3_30;4870.998049269241;389;9352.996098538482
50l_3_50;29024.95766956299;2329;55720.91533912598
50l_3_50;24801.490663086814;2451;47151.98132617363
50l_3_50;24573.132830373776;2481;46665.26566074755
50l_3_50;22582.523345528614;2514;42651.04669105723
50l_3_50;22185.265384451188;2932;41438.530768902376
50l_3_50;21395.716767283335;3147;39644.43353456667
50l_3_70;36711.4888942196;3657;69765.9777884392
50l_3_70;30835.37516987091;3658;58012.75033974182
50l_3_70;30870.28823534621;3730;58010.57647069242
50l_3_70;26134.118849486054;4157;48111.23769897211
50l_5_30;24704.361541122016;1805;47603.72308224403
50l_5_30;19691.597881806098;1868;37515.195763612195
50l_5_30;18329.83521540327;2283;34376.67043080654
50l_5_50;32057.97620921082;2720;61395.95241842164
50l_5_50;27019.98294940602;2783;51256.96589881204
50l_5_50;24641.67854996818;3179;46104.35709993636
50l_5_50;21886.31889283886;3599;40173.63778567772
50l_5_70;31439.139367023552;3550;59328.278734047104
50l_5_70;30412.363410310292;3589;57235.726820620584
50l_5_70;26395.861000413894;4071;48720.72200082779
50m_1_30;3007.2825670729508;1;6013.5651341459015
50m_1_30;2872.8325510512223;10;5735.6651021024445
50m_1_30;2859.3325510512223;16;5702.6651021024445
50m_1_30;2836.4325647841324;20;5652.865129568265
50m_1_30;2838.932564784132;25;5652.865129568264
50m_1_30;2828.9325647841324;26;5631.865129568265
50m_1_30;2829.9325647841324;31;5628.865129568265
50m_1_30;2830.9325647841324;44;5617.865129568265
50m_1_30;2845.432564784132;78;5612.865129568264
50m_1_50;16479.513963935344;1415;31544.02792787069
50m_1_50;15290.253183394389;1552;29028.506366788777
50m_1_50;14812.25324061485;1961;27663.5064812297
50m_1_50;13896.895582147301;2337;25456.791164294602
50m_1_50;13862.203334361035;2483;25241.40666872207
50m_1_70;19727.35631946595;2318;37136.7126389319
50m_1_70;18983.60611548349;2396;35571.21223096698
50m_1_70;15340.530828248624;2576;28105.061656497248
50m_1_70;14552.753107100447;2659;26446.506214200894
50m_1_70;14355.302172168413;2807;25903.604344336825
50m_1_70;14027.403296977005;2892;25162.80659395401
50m_3_30;18874.936609623906;1483;36266.87321924781
50m_3_30;17662.730493338193;1741;33584.460986676386
50m_3_30;17538.886530278203;1816;33261.77306055641
50m_3_30;16902.586527226445;1879;31926.17305445289
50m_3_30;16839.586450932497;1893;31786.172901864997
50m_3_30;14632.892332982827;2241;27024.784665965653
50m_3_50;20642.47917891142;2535;38749.95835782284
50m_3_50;16039.950702534246;2811;29268.901405068493
50m_3_70;5749.449053596268;1396;10102.898107192535
50m_3_70;5760.527400655649;1435;10086.054801311298
50m_3_70;5767.849032233961;1465;10070.698064467922
50m_3_70;5772.897321942129;1495;10050.794643884257
50m_3_70;5734.397321942129;1593;9875.794643884257
50m_5_30;26755.976422859407;1977;51534.95284571881
50m_5_30;22802.88639674676;2060;43545.77279349352
50m_5_30;17682.41489829787;2378;32986.82979659574
50m_5_50;23184.90119067893;2564;43805.80238135786
50m_5_50;20298.834058452405;2642;37955.66811690481
50m_5_50;19448.61296112932;2996;35901.22592225864
50m_5_50;18216.142459161605;3237;33195.28491832321
50s_1_30;13275.079580887661;971;25579.159161775322
50s_1_30;11781.979582413538;1127;22436.959164827076
50s_1_30;9919.98032042525;1214;18625.9606408505
50s_1_50;2938.5078981333245;657;5220.015796266649
50s_1_50;2963.5078981333245;720;5207.015796266649
50s_1_50;2982.5078981333245;769;5196.015796266649
50s_1_50;3329.5203439712586;534;6125.040687942517
50s_1_50;3313.0203439712586;545;6081.040687942517
50s_1_50;3058.5078905039304;556;5561.015781007861
50s_1_50;3038.0078905039304;567;5509.015781007861
50s_1_50;3050.007898133325;601;5499.01579626665
50s_1_50;3011.607833664941;612;5411.215667329882
50s_1_50;2987.2578428202146;617;5357.515685640429
50s_1_50;2944.757842820214;623;5266.515685640428
50s_1_50;2945.6078336649407;636;5255.215667329881
50s_1_70;12630.029724701746;2662;22598.059449403492
50s_1_70;12451.079657181603;2754;22148.159314363205
50s_1_70;9804.756879721892;2911;16698.513759443784
50s_3_30;15056.631655450557;1832;28281.263310901115
50s_3_30;13696.720238794633;2004;25389.440477589265
50s_3_30;12979.359768248176;2067;23891.71953649635
50s_3_30;12433.972999645477;2093;22774.945999290954
50s_3_30;11490.62258341497;2153;20828.24516682994
50s_3_50;14784.958391975135;2276;27293.91678395027
50s_3_50;13533.933593849879;2388;24679.867187699758
50s_3_50;12926.983596901637;2479;23374.967193803273
50s_3_50;12598.863854288544;2546;22651.727708577087
50s_3_50;11109.246405869546;2610;19608.492811739092
50s_3_70;15430.045297079025;3602;27258.09059415805
50s_3_70;14571.507536260475;4040;25103.01507252095
50s_3_70;13913.825229416674;4466;23361.65045883335
50s_5_30;15009.290923550123;1816;28202.581847100246
50s_5_30;14715.491652788034;1932;27498.98330557607
50s_5_30;13844.840924694534;2037;25652.681849389068
50s_5_30;10988.55859999265;2515;19462.1171999853
70l_1_30;14130.045526837846;111;28149.091053675693
70l_1_30;14100.045526837846;120;28080.091053675693
70l_1_30;15352.069295984717;38;30666.138591969433
70l_1_30;15174.069295984717;40;30308.138591969433
70l_1_30;15075.474890032523;45;30105.949780065046
70l_1_30;14438.489925542117;56;28820.979851084234
70l_1_30;14321.989925542117;71;28572.979851084234
70l_1_30;14212.09552226021;74;28350.19104452042
70l_1_30;14212.59552226021;76;28349.19104452042
70l_1_30;14178.59552226021;85;28272.19104452042
70l_1_30;14168.439930119752;106;28230.879860239504
70l_1_50;41639.239115418684;2480;80798.47823083737
70l_1_50;37561.69590464685;2531;72592.3918092937
70l_1_50;33553.85489048809;3110;63997.70978097618
70l_1_70;37161.548858557064;3413;70910.09771711413
70l_1_70;34556.1722878524;3847;65265.34457570481
70l_1_70;34543.493072519006;3941;65145.98614503802
70l_1_70;34372.8020949328;4037;64708.6041898656
70l_1_70;33052.69394913985;4075;62030.38789827971
70l_3_30;39917.293216226506;2473;77361.58643245301
70l_3_30;37826.112874795814;3296;72356.22574959163
70l_3_50;52672.845655249854;3033;102312.69131049971
70l_3_50;47869.1819319477;3690;92048.3638638954
70l_3_50;46949.111499385675;4107;89791.22299877135
70l_3_50;42684.82838986219;4186;81183.65677972438
70l_3_50;42519.17130897339;4335;80703.34261794678
70l_3_50;40017.10099783232;4445;75589.20199566464
70l_3_70;56364.85910703594;5847;106882.71821407188
70l_3_70;52301.6507972734;6169;98434.3015945468
70l_3_70;51606.03821235931;6331;96881.07642471862
70l_5_30;55243.116411459836;3106;107380.23282291967
70l_5_30;52020.94408272972;3129;100912.88816545944
70l_5_30;48467.84420050984;3214;93721.68840101968
70l_5_30;42655.123074503084;3338;81972.24614900617
70l_5_30;41422.619740581584;3372;79473.23948116317
70l_5_30;41029.773423968516;4022;78037.54684793703
70l_5_50;57299.067494023875;4307;110291.13498804775
70l_5_50;46170.408636300206;4551;87789.81727260041
70l_5_70;64787.94313445603;5581;123994.88626891206
70l_5_70;56323.92587633941;5630;107017.85175267882
70m_1_30;10134.863329487618;326;19943.726658975236
70m_1_30;10155.013324337777;420;19890.026648675554
70m_1_30;10602.71326597291;127;21078.42653194582
70m_1_30;10252.363277989207;148;20356.726555978414
70m_1_30;10181.363277989207;183;20179.726555978414
70m_1_30;10181.5781715948;187;20176.1563431896
70m_1_30;10148.863277989207;197;20100.726555978414
70m_1_30;10144.013324337779;232;20056.026648675557
70m_1_30;10144.228217943371;236;20052.456435886743
70m_1_30;10137.863277989207;265;20010.726555978414
70m_1_30;10133.013324337777;300;19966.026648675554
70m_1_50;34333.57354889938;2647;66020.14709779876
70m_1_50;31889.173551188193;2987;60791.347102376385
70m_1_50;29251.643139392752;3012;55491.286278785505
70m_1_50;28065.073789225313;3174;52956.147578450626
70m_1_50;24913.673860178675;3684;46143.34772035735
70m_1_70;32061.423760996553;3720;60402.847521993106
70m_1_70;29005.07376252243;4062;53948.14752504486
70m_1_70;27739.140850141983;4406;51072.281700283966
70m_3_30;39644.10960793756;2649;76639.21921587511
70m_3_30;39449.109605076526;2701;76197.21921015305
70m_3_30;37077.483490120445;2724;71430.96698024089
70m_3_30;34350.983005049085;2754;65947.96601009817
70m_3_30;31510.30983090661;2998;60022.61966181322
70m_3_30;31121.59457680061;3279;58964.18915360122
70m_3_50;38261.29998662067;3569;72953.59997324133
70m_3_50;35612.792270610254;3795;67430.58454122051
70m_3_50;34062.39505907047;4012;64112.79011814094
70m_3_50;31815.79906765903;4085;59546.59813531806
70m_3_70;41915.84582707963;4689;79142.69165415927
70m_3_70;41109.34100373465;4787;77431.6820074693
70m_3_70;31914.383745321218;4848;58980.767490642436
70m_5_30;51187.11591352879;3261;99113.23182705758
70m_5_30;42559.003156091974;3464;81654.00631218395
70m_5_30;37984.34417996554;3605;72363.68835993108
70m_5_30;37881.97446109556;4014;71749.94892219112
70m_5_50;47224.73595656315;4149;90300.4719131263
70m_5_50;38427.40150259366;4270;72584.80300518732
70s_1_30;26731.98330810233;1920;51543.96661620466
70s_1_30;25010.833207394317;1973;48048.66641478863
70s_1_30;20949.0197785818;2462;39436.0395571636
70s_1_30;20586.6786588875;2702;38471.357317775
70s_1_50;10247.072091135109;1591;18903.144182270218
70s_1_50;10104.567429713257;1603;18606.134859426515
70s_1_50;10062.567429713257;1614;18511.134859426515
70s_1_50;10011.067429713257;1617;18405.134859426515
70s_1_50;9932.272080453957;1628;18236.544160907913
70s_1_50;9856.61744039441;1644;18069.23488078882
70s_1_50;9872.322176012123;1749;17995.644352024246
70s_1_50;9882.322176012123;1784;17980.644352024246
70s_1_70;24825.483414913844;4228;45422.96682982769
70s_1_70;23902.98341491385;4273;43532.9668298277
70s_1_70;21484.07481657358;4495;38473.14963314716
70s_1_70;21137.983413006503;4797;37478.966826013006
70s_1_70;20546.967827024586;4871;36222.93565404917
70s_3_30;27932.533489057616;2842;53023.06697811523
70s_3_30;25792.23884502019;2925;48659.47769004038
70s_3_30;25375.40458803316;2955;47795.80917606632
70s_3_30;22188.085025181055;3046;41330.17005036211
70s_3_30;20915.36370756001;3546;38284.72741512002
70s_3_50;27786.437395832614;3542;52030.87479166523
70s_3_50;26610.987284443454;3605;49616.97456888691
70s_3_50;26565.00532328222;3768;49362.01064656444
70s_3_50;22721.6885994292;4003;41440.3771988584
70s_3_50;21938.93761374719;4256;39621.87522749438
70s_3_70;33526.632752779566;5672;61381.265505559124
70s_3_70;30795.959071049914;6061;55530.91814209983
70s_5_30;29185.041013100967;3353;55017.08202620193
70s_5_30;25494.64066253029;3518;47471.28132506058
70s_5_30;24553.885415293567;3978;45129.770830587135
